[
  {
    "question": "I would live to live by _____ sea",
    "answers": [
      "the",
      "a",
      "an",
      "-"
    ],
    "correct": 0
  },
  {
    "question": "Harry is a sailor. He spends most of his life at______ see.",
    "answers": [
      "a",
      "an",
      "the",
      "-"
    ],
    "correct": 3
  },
  {
    "question": "There are billions of stars in ______ space.",
    "answers": [
      "a",
      "an",
      "-",
      "the"
    ],
    "correct": 2
  },
  {
    "question": "He tried to park his car but______ space wasn't big enough.",
    "answers": [
      "the",
      "a",
      "an",
      "-"
    ],
    "correct": 0
  },
  {
    "question": "We often watch______ television",
    "answers": [
      "the",
      "a",
      "an",
      "-"
    ],
    "correct": 3
  },
  {
    "question": "Can you turn off______ television, please?",
    "answers": [
      "the",
      "a",
      "an",
      "-"
    ],
    "correct": 0
  },
  {
    "question": "We had______ dinner in a restaurant.",
    "answers": [
      "a",
      "an",
      "-",
      "the"
    ],
    "correct": 2
  },
  {
    "question": "We had______ meal in a restaurant.",
    "answers": [
      "a",
      "an",
      "the",
      "-"
    ],
    "correct": 0
  },
  {
    "question": "Thank you. That was______ very nice lunch.",
    "answers": [
      "a",
      "an",
      "the",
      "-"
    ],
    "correct": 0
  },
  {
    "question": "Where can______ people buy everything they need?",
    "answers": [
      "the",
      "a",
      "an",
      "-"
    ],
    "correct": 3
  }
]